fall,319
anthrax,164
cannibal-corpse,155
cradle-of-filth,145
bathory,138
gamma-ray,124
blind-guardian,124
annihilator,124
fear-factory,123
exodus,107
edguy,106
amon-amarth,105
entombed,103
biohazard,102
acid-drinkers,97
behemoth,95
anvil,94
flotsam-and-jetsam,94
children-of-bodom,94
bullet-for-my-valentine,90
dark-tranquility,89
front-line-assembly,84
devildriver,84
five-finger-death-punch,81
demon-hunter,80
epica,78
clawfinger,77
bring-me-the-horizon,74
amorphis,73
darkseed,73
angra,71
august-burns-red,70
dri,69
death-ss,69
edge-of-sanity,68
dragonforce,67
avantasia,67
atrocity,65
arch-enemy,64
chimaira,64
all-that-remains,64
armored-saint,64
benediction,63
darkness,63
the-black-dahlia-murder,63
crematory,62
evergrey,61
centinex,61
exciter,60
carcass,59
