bee-gees,558
american-idol,530
barbra-streisand,513
britney-spears,395
diana-ross,372
dusty-springfield,274
donna-summer,258
celine-dion,242
avril-lavigne,238
akon,236
boyz-ii-men,231
erasure,230
backstreet-boys,230
christina-aguilera,226
amy-grant,222
beyonce-knowles,212
the-carpenters,192
brandy,187
bonnie-tyler,185
ciara,184
bananarama,179
gary-numan,177
alicia-keys,175
beautiful-south,170
depeche-mode,170
ashanti,166
disney,165
anne-murray,163
eurythmics,156
andy-williams,154
clifford-t-ward,153
demi-lovato,151
abba,150
george-michael,150
destiny-s-child,147
glen-campbell,140
boney-m,135
blue-system,133
boyzone,133
celtic-thunder,132
boy-george,128
craig-david,126
a-ha,125
dannii-minogue,124
alphaville,123
ben-lee,123
crystal-lewis,117
girls-aloud,114
frank-ocean,113
enrique-iglesias,112
