dar-williams,101
the-blood-brothers,77
devendra-banhart,76
frank-turner,75
damien-rice,73
city-and-colour,65
go-betweens,59
angus-julia-stone,56
craig-cardiff,54
birdy,52
chase-coy,52
brett-dennen,50
aurora,43
amy-macdonald,40
bobby-long,39
glen-hansard,38
ane-brun,37
colin-hay,36
eric-hutchinson,35
dan-bern,35
bon-iver,32
flight-of-the-conchords,32
garrison-starr,31
anna-ternheim,31
daughter,29
andrew-bird-s-bowl-of-fire,27
ben-howard,26
cocorosie,26
catfish-and-the-bottlemen,24
bitch-animal,23
the-elwins,22
denison-witmer,22
elvis-perkins,21
angel-olsen,21
the-beautiful-girls,21
beirut,20
bear-s-den,18
catie-curtis,18
anna-aaron,18
agnes-obel,18
barr-brothers,18
ariel-pink,17
girlysound,17
gemma-hayes,17
frogs,17
anthony-green,16
ernie-halter,16
dan-mangan,15
courtney-barnett,15
big-deal,14
