elton-john,608
bob-dylan,556
elvis-costello,507
b-b-king,501
bruce-springsteen,499
david-bowie,498
beach-boys,427
eric-clapton,407
bon-jovi,376
beatles,343
barry-manilow,341
conway-twitty,325
chicago,323
frank-zappa,310
electric-light-orchestra,299
alice-cooper,292
elvis-presley,290
cher,282
bad-religion,277
cliff-richard,275
alabama,270
fleetwood-mac,267
ani-difranco,261
band,257
barenaked-ladies,250
blondie,248
bette-midler,248
ac-dc,246
chumbawamba,245
beck,240
duran-duran,236
aerosmith,234
carly-simon,233
carole-king,226
chris-de-burgh,224
blues-traveler,223
the-byrds,215
church,211
bryan-adams,206
america,205
genesis,204
the-cure,202
dream-theater,200
bonnie-raitt,199
dave-matthews-band,197
air-supply,196
fall-out-boy,196
dave-dudley,194
eels,192
deep-purple,192
